﻿[
  {
    "Name": "Австралийский доллар",
    "Code": "AUD"
  },
  {
    "Name": "Азербайджанский манат",
    "Code": "AZN"
  },
  {
    "Name": "10 Армянских драмов",
    "Code": "AMD"
  },
  {
    "Name": "Белорусский рубль",
    "Code": "BYN"
  },
  {
    "Name": "Бразильский реал",
    "Code": "BRL"
  },
  {
    "Name": "10 Венгерских форинтов",
    "Code": "HUF"
  },
  {
    "Name": "100 Вон Республики Корея",
    "Code": "KRW"
  },
  {
    "Name": "Гонконгский доллар",
    "Code": "HKD"
  },
  {
    "Name": "Грузинский лари",
    "Code": "GEL"
  },
  {
    "Name": "Датская крона",
    "Code": "DKK"
  },
  {
    "Name": "Дирхам ОАЭ",
    "Code": "AED"
  },
  {
    "Name": "Доллар США",
    "Code": "USD"
  },
  {
    "Name": "Евро",
    "Code": "EUR"
  },
  {
    "Name": "Индийская рупия",
    "Code": "INR"
  },
  {
    "Name": "1000 Иранских риалов",
    "Code": "IRR"
  },
  {
    "Name": "Канадский доллар",
    "Code": "CAD"
  },
  {
    "Name": "Китайский юань",
    "Code": "CNY"
  },
  {
    "Name": "Кыргызский сом",
    "Code": "KGS"
  },
  {
    "Name": "Кувейтский динар",
    "Code": "KWD"
  },
  {
    "Name": "Малазийский ринггит",
    "Code": "MYR"
  },
  {
    "Name": "Мексиканский песо",
    "Code": "MXN"
  },
  {
    "Name": "Молдавский лей",
    "Code": "MDL"
  },
  {
    "Name": "Норвежская крона",
    "Code": "NOK"
  },
  {
    "Name": "Польский злотый",
    "Code": "PLN"
  },
  {
    "Name": "Российский рубль",
    "Code": "RUB"
  },
  {
    "Name": "Риял Саудовской Аравии",
    "Code": "SAR"
  },
  {
    "Name": "СДР",
    "Code": "XDR"
  },
  {
    "Name": "Сингапурский доллар",
    "Code": "SGD"
  },
  {
    "Name": "Таджикский сомони",
    "Code": "TJS"
  },
  {
    "Name": "Тайский бат",
    "Code": "THВ"
  },
  {
    "Name": "Турецкая лира",
    "Code": "TRY"
  },
  {
    "Name": "100 Узбекских сумов",
    "Code": "UZS"
  },
  {
    "Name": "Украинская гривна",
    "Code": "UAH"
  },
  {
    "Name": "Фунт стерлингов Соединенного Королевства",
    "Code": "GBP"
  },
  {
    "Name": "Чешская крона",
    "Code": "CZK"
  },
  {
    "Name": "Шведская крона",
    "Code": "SEK"
  },
  {
    "Name": "Швейцарский франк",
    "Code": "CHF"
  },
  {
    "Name": "Южноафриканский рэнд",
    "Code": "ZAR"
  },
  {
    "Name": "Японская йена",
    "Code": "JPY"
  }
]